<svg xmlns="http://www.w3.org/2000/svg" width="24" height="24" viewBox="0 0 24 24">
    <path fill="#0D0D0D" fill-rule="evenodd" d="M11.197 7.442L9.349 9.29a.3.3 0 0 1-.425 0l-.282-.283a.3.3 0 0 1 0-.424l2.837-2.838a.3.3 0 0 1 .423 0l.498.493-.002.002 2.343 2.343a.3.3 0 0 1 0 .424l-.283.283a.3.3 0 0 1-.424 0l-1.837-1.837.057 12.243a.3.3 0 0 1-.299.301l-.4.002a.3.3 0 0 1-.301-.299l-.057-12.258z"/>
</svg>
