<svg xmlns="http://www.w3.org/2000/svg" width="24" height="24" viewBox="0 0 24 24">
    <path fill="#0D0D0D" fill-rule="evenodd" d="M12 22C6.477 22 2 17.523 2 12S6.477 2 12 2s10 4.477 10 10-4.477 10-10 10zm1-10v-.7a.3.3 0 0 0-.3-.3h-1.4a.3.3 0 0 0-.3.3v.4a.3.3 0 0 0 .3.3h.7v3h-.7a.3.3 0 0 0-.3.3v.4a.3.3 0 0 0 .3.3h2.4a.3.3 0 0 0 .3-.3v-.4a.3.3 0 0 0-.3-.3H13v-3zm-1-2a1 1 0 1 0 0-2 1 1 0 0 0 0 2z"/>
</svg>
