<svg xmlns="http://www.w3.org/2000/svg" width="24" height="24" viewBox="0 0 24 24">
    <path fill="#0D0D0D" fill-rule="evenodd" d="M12 21a9 9 0 1 1 0-18 9 9 0 0 1 0 18zm-.68-15a.3.3 0 0 0-.3.319l.464 7.4a.3.3 0 0 0 .3.281h.431a.3.3 0 0 0 .3-.281l.465-7.4a.3.3 0 0 0-.3-.319h-1.36zM12 18a1 1 0 1 0 0-2 1 1 0 0 0 0 2z"/>
</svg>
